%YAML 1.1
%TAG !u! tag:unity3d.com,2011:
--- !u!21 &2100000
Material:
  serializedVersion: 6
  m_ObjectHideFlags: 0
  m_CorrespondingSourceObject: {fileID: 0}
  m_PrefabInstance: {fileID: 0}
  m_PrefabAsset: {fileID: 0}
  m_Name: WaterMat
  m_Shader: {fileID: -6465566751694194690, guid: fcec5c7f54d55f04ca3e7e7365f2cbc0,
    type: 3}
  m_ShaderKeywords: 
  m_LightmapFlags: 4
  m_EnableInstancingVariants: 1
  m_DoubleSidedGI: 0
  m_CustomRenderQueue: -1
  stringTagMap: {}
  disabledShaderPasses: []
  m_SavedProperties:
    serializedVersion: 3
    m_TexEnvs: []
    m_Floats:
    - Vector1_616649A9: 1
    - Vector1_6A425CAE: 0.05
    - Vector1_8021C456: 100
    - Vector1_A2A5CE09: 0.5
    - Vector1_B338B919: 10
    - Vector1_BE3A45E9: 2
    - Vector1_CB844FDF: 2
    - Vector1_D4A8F7FF: 1
    - Vector1_DF19B160: 2
    - Vector1_E795CBBC: 0
    m_Colors:
    - Color_70BCE7B: {r: 0, g: 0, b: 0, a: 0.34901962}
    - Color_93617C5D: {r: 0, g: 1, b: 0.99068636, a: 0.23921569}
    - Color_995E6F95: {r: 0, g: 0.3077015, b: 1, a: 1}
